generator,compressor,tar_GiB,tar_compressed_size_bytes,comp_hr_human,comp_min_human,compression_minutes,decomp_min_human,decomp_sec_human,decompression_seconds,OS
Rust,R gzip -1,22.4,24082479636,1,33,93,37,16,2236,Debian 12 (bookworm)
Rust,R gzip -9,20.9,22405658148,23,58,1438,36,54,2214,Debian 12 (bookworm)
Rust,R zstd -1,18.6,19959285857,0,44,44,10,24,624,Debian 12 (bookworm)
Rust,R zstd -9,16.9,18197444875,2,1,121,12,17,737,Debian 12 (bookworm)
Rust,R xz -1,15.2,16326423284,2,26,146,18,25,1105,Debian 12 (bookworm)
Rust,R xz -9,14.2,15225217044,23,33,1413,21,17,1277,Debian 12 (bookworm)
Rust,R plzip -0,15.6,16783136022,1,39,99,26,6,1566,Debian 11 (bullseye)
multitouch,MT gzip -1,17.6,18898546349,1,23,83,36,44,2204,Debian 12 (bookworm)
multitouch,MT gzip -9,16.3,17552339421,18,48,1128,36,29,2189,Debian 12 (bookworm)
multitouch,MT zstd -1,17.6,12467852534,0,39,39,10,42,642,Debian 12 (bookworm)
multitouch,MT zstd -9,11.5,12325037164,1,53,113,12,32,752,Debian 12 (bookworm)
multitouch,MT xz -1,10.4,11190527520,2,1,121,17,7,1027,Debian 12 (bookworm)
multitouch,MT xz -9,9.83,10558738552,19,5,1145,18,41,1121,Debian 12 (bookworm)
multitouch,MT plzip -0,11.8,12616526797,1,26,86,22,45,1365,Debian 11 (bullseye)
parallel multitouch,PMT gzip -1,18,19363707950,1,24,84,47,38,2858,Debian 12 (bookworm)
parallel multitouch,PMT gzip -9,16.7,17945772001,16,15,975,37,21,2241,Debian 12 (bookworm)
parallel multitouch,PMT zstd -1,12.8,13724931111,0,41,41,29,27,1767,Debian 12 (bookworm)
parallel multitouch,PMT zstd -9,12.3,13164960341,1,52,112,12,41,761,Debian 12 (bookworm)
parallel multitouch,PMT xz -1,11,11814425516,2,3,123,18,11,1091,Debian 12 (bookworm)
parallel multitouch,PMT xz -9,10.1,10826544052,19,19,1159,18,30,1110,Debian 12 (bookworm)
parallel multitouch,PMT plzip -0,11.8,12713814131,1,26,86,22,47,1367,Debian 11 (bullseye)